module gitlab.com/DarkIsDude/slack-random-emoji

go 1.17

require (
	github.com/joho/godotenv v1.4.0 // direct
	github.com/rivo/tview v0.0.0-20211109175620-badfa0f0b301 // direct
)

require (
	github.com/gdamore/encoding v1.0.0 // indirect
	github.com/gdamore/tcell/v2 v2.4.1-0.20210905002822-f057f0a857a1 // indirect
	github.com/lucasb-eyer/go-colorful v1.2.0 // indirect
	github.com/mattn/go-runewidth v0.0.13 // indirect
	github.com/rivo/uniseg v0.2.0 // indirect
	golang.org/x/sys v0.0.0-20210309074719-68d13333faf2 // indirect
	golang.org/x/term v0.0.0-20210220032956-6a3ed077a48d // indirect
	golang.org/x/text v0.3.6 // indirect
)
